blog - Exercice 3
…
olympics_athletes <- dbReadTable(con, "olympics_athletes")

dbDisconnect(con)

olympics_athletes_tibble <- as_tibble(olympics_athletes)

Question 8

Convertissez la colonne Sex en variable catégorielle avec la fonction mutate.

olympics_athletes_tibble <- olympics_athletes_tibble |> 
  mutate(Sex = factor(Sex))
olympics_athletes_tibble

# A tibble: 269,731 × 13
      ID Name      Sex     Age Height Weight Team  NOC   Games City  Sport Event
   <int> <chr>     <fct> <int>  <int>  <dbl> <chr> <chr> <chr> <chr> <chr> <chr>
 1     1 A Dijiang M        24    180     80 China CHN   1992… Barc… Bask… Bask…
 2     2 A Lamusi  M        23    170     60 China CHN   2012… Lond… Judo  Judo…
 3     3 Gunnar N… M        24     NA     NA Denm… DEN   1920… Antw… Foot… Foot…
 4     4 Edgar Li… M        34     NA     NA Denm… DEN   1900… Paris Tug-… Tug-…
 5     5 Christin… F        21    185     82 Neth… NED   1988… Calg… Spee… Spee…
 6     5 Christin… F        21    185     82 Neth… NED   1988… Calg… Spee… Spee…
 7     5 Christin… F        25    185     82 Neth… NED   1992… Albe… Spee… Spee…
 8     5 Christin… F        25    185     82 Neth… NED   1992… Albe… Spee… Spee…
 9     5 Christin… F        27    185     82 Neth… NED   1994… Lill… Spee… Spee…
10     5 Christin… F        27    185     82 Neth… NED   1994… Lill… Spee… Spee…
# ℹ 269,721 more rows
# ℹ 1 more variable: Medal <chr>

Question 9

Créez deux colonnes à partir de la colonne Games. La première colonne Year sera une colonne de type integer contenant l’année des jeux. La deuxième colonne isSummer sera une colonne booléenne qui indiquera si les jeux sont des jeux d’été ou d’hiver.

olympics_athletes_tibble <- olympics_athletes_tibble |> 
  mutate(
    Year = as.integer(substring(Games, 1, 4)),
    isSummer = ifelse(ifelse(grepl("Summer", Games), "Summer", "Winter")== "Summer", TRUE, FALSE))
olympics_athletes_tibble

# A tibble: 269,731 × 15
      ID Name      Sex     Age Height Weight Team  NOC   Games City  Sport Event
   <int> <chr>     <fct> <int>  <int>  <dbl> <chr> <chr> <chr> <chr> <chr> <chr>
 1     1 A Dijiang M        24    180     80 China CHN   1992… Barc… Bask… Bask…
 2     2 A Lamusi  M        23    170     60 China CHN   2012… Lond… Judo  Judo…
 3     3 Gunnar N… M        24     NA     NA Denm… DEN   1920… Antw… Foot… Foot…
 4     4 Edgar Li… M        34     NA     NA Denm… DEN   1900… Paris Tug-… Tug-…
 5     5 Christin… F        21    185     82 Neth… NED   1988… Calg… Spee… Spee…
 6     5 Christin… F        21    185     82 Neth… NED   1988… Calg… Spee… Spee…
 7     5 Christin… F        25    185     82 Neth… NED   1992… Albe… Spee… Spee…
 8     5 Christin… F        25    185     82 Neth… NED   1992… Albe… Spee… Spee…
 9     5 Christin… F        27    185     82 Neth… NED   1994… Lill… Spee… Spee…
10     5 Christin… F        27    185     82 Neth… NED   1994… Lill… Spee… Spee…
# ℹ 269,721 more rows
# ℹ 3 more variables: Medal <chr>, Year <int>, isSummer <lgl>

Question 10

Calculez la moyenne d’age des athletes pour chacune des éditions des JO d’été. Quelle édition a compté les athlètes les plus jeunes ? Les plus vieux ?

#moyenne age
moy_ete <- olympics_athletes_tibble |> 
  filter(isSummer == "TRUE") |> 
  group_by(Year) |> 
  summarise(moy_age = mean(Age, na.rm = TRUE))
print(moy_ete)

# A tibble: 29 × 2
    Year moy_age
   <int>   <dbl>
 1  1896    23.6
 2  1900    28.9
 3  1904    26.7
 4  1906    27.1
 5  1908    27.0
 6  1912    27.5
 7  1920    29.3
 8  1924    28.1
 9  1928    28.0
10  1932    30.2
# ℹ 19 more rows
…
