blog - Exercice 2
…
Les trois disciplines avec le plus de médailles distribuées sont l’athlétisme, la nation et la lutte.

Question 4

Les disciplines avec le moins d’épreuves en 2020

data_medaillles_sport_ete |> 
  arrange(Epreuves_2020)

# A tibble: 30 × 10
   Discipline            Annees Editions Epreuves_2020    Or Argent Bronze Total
   <chr>                 <chr>     <int>         <int> <int>  <int>  <int> <int>
 1 Football              1900–…       27             2    34     34     35   103
 2 Golf                  1900–…        4             2     8      8      9    19
 3 Handball              1936,…       14             2    26     26     26    78
 4 Hockey sur gazon      1908,…       24             2    35     35     36   106
 5 Natation synchronisée Depui…       10             2    20     18     19    57
 6 Pentathlon moderne    Depui…       25             2    42     42     42   126
 7 Volley-ball           Depui…       15             2    30     30     30    90
 8 Water polo            1900,…       26             2    28     28     29    85
 9 Triathlon             Depui…        6             3    13     13     13    39
10 Basket-ball           Depui…       20             4    32     32     32    96
# ℹ 20 more rows
# ℹ 2 more variables: Athletes_medailles <chr>, Athletes_or <chr>
…
